{
   "page":1,
   "total_results":10000,
   "total_pages":500,
   "results":[
      {
         "popularity":406.474,
         "vote_count":5158,
         "video":false,
         "poster_path":"\/lcq8dVxeeOqHvvgcte707K0KVx5.jpg",
         "id":429617,
         "adult":false,
         "backdrop_path":"\/5myQbDzw3l8K9yofUXRJ4UTVgam.jpg",
         "original_language":"en",
         "original_title":"Spider-Man: Far from Home",
         "genre_ids":[
            28,
            12,
            878
         ],
         "title":"Spider-Man: Far from Home",
         "vote_average":7.6,
         "overview":"Peter Parker and his friends go on a summer trip to Europe. However, they will hardly be able to rest - Peter will have to agree to help Nick Fury uncover the mystery of creatures that cause natural disasters and destruction throughout the continent.",
         "release_date":"2019-06-28"
      },
      {
         "popularity":409.526,
         "vote_count":298,
         "video":false,
         "poster_path":"\/qdfARIhgpgZOBh3vfNhWS4hmSo3.jpg",
         "id":330457,
         "adult":false,
         "backdrop_path":"\/xJWPZIYOEFIjZpBL7SVBGnzRYXp.jpg",
         "original_language":"en",
         "original_title":"Frozen II",
         "genre_ids":[
            12,
            16,
            35,
            10402,
            10751
         ],
         "title":"Frozen II",
         "vote_average":7,
         "overview":"Elsa, Anna, Kristoff and Olaf are going far in the forest to know the truth about an ancient mystery of their kingdom.",
         "release_date":"2019-11-20"
      },
      {
         "popularity":219.604,
         "vote_count":211,
         "video":false,
         "poster_path":"\/r15SUgzjL8bablcdEkHk9T7TSRl.jpg",
         "id":480042,
         "adult":false,
         "backdrop_path":"\/ygWKYTu7OnZKF9H5NsgjL9iURGV.jpg",
         "original_language":"en",
         "original_title":"Escape Plan: The Extractors",
         "genre_ids":[
            28,
            53
         ],
         "title":"Escape Plan: The Extractors",
         "vote_average":4.7,
         "overview":"After security expert Ray Breslin is hired to rescue the kidnapped daughter of a Hong Kong tech mogul from a formidable Latvian prison, Breslin's girlfriend is also captured. Now he and his team must pull off a deadly rescue mission to confront their sadistic foe and save the hostages before time runs out.",
         "release_date":"2019-06-20"
      },
      {
         "popularity":190.362,
         "vote_count":5974,
         "video":false,
         "poster_path":"\/udDclJoHjfjb8Ekgsd4FDteOkCU.jpg",
         "id":475557,
         "adult":false,
         "backdrop_path":"\/n6bUvigpRFqSwmPp1m2YADdbRBc.jpg",
         "original_language":"en",
         "original_title":"Joker",
         "genre_ids":[
            80,
            18,
            53
         ],
         "title":"Joker",
         "vote_average":8.4,
         "overview":"During the 1980s, a failed stand-up comedian is driven insane and turns to a life of crime and chaos in Gotham City while becoming an infamous psychopathic crime figure.",
         "release_date":"2019-10-02"
      },
      {
         "popularity":135.28,
         "vote_count":3,
         "video":false,
         "poster_path":"\/bKdk8hNlsGYDPXPEPRKtUjcwiQx.jpg",
         "id":453075,
         "adult":false,
         "backdrop_path":"\/1oQcW3xi7IFbInWnhgG1Eir4RAL.jpg",
         "original_language":"ko",
         "original_title":"어느 여름날 밤에",
         "genre_ids":[
            18
         ],
         "title":"One Summer Night",
         "vote_average":7,
         "overview":"In the winter of 2013, Yong-jun and Jae-sung, a member of the Korean People’s Army, Their sex scene is caught by the superior. After all, Yong-jun decided to defect from North Korea leaving Jae-sung.",
         "release_date":"2017-04-06"
      },
      {
         "popularity":183.348,
         "vote_count":2778,
         "video":false,
         "poster_path":"\/8j58iEBw9pOXFD2L0nt0ZXeHviB.jpg",
         "id":466272,
         "adult":false,
         "backdrop_path":"\/nGJpQCAn2NKeDoEflLI5DIvsqoQ.jpg",
         "original_language":"en",
         "original_title":"Once Upon a Time... in Hollywood",
         "genre_ids":[
            35,
            18,
            53
         ],
         "title":"Once Upon a Time... in Hollywood",
         "vote_average":7.6,
         "overview":"A faded television actor and his stunt double strive to achieve fame and success in the film industry during the final years of Hollywood's Golden Age in 1969 Los Angeles.",
         "release_date":"2019-07-25"
      },
      {
         "popularity":136.3,
         "vote_count":3692,
         "video":false,
         "poster_path":"\/2bXbqYdUdNVa8VIWXVfclP2ICtT.jpg",
         "id":420818,
         "adult":false,
         "backdrop_path":"\/nRXO2SnOA75OsWhNhXstHB8ZmI3.jpg",
         "original_language":"en",
         "original_title":"The Lion King",
         "genre_ids":[
            12,
            18
         ],
         "title":"The Lion King",
         "vote_average":7.1,
         "overview":"Simba idolizes his father, King Mufasa, and takes to heart his own royal destiny. But not everyone in the kingdom celebrates the new cub's arrival. Scar, Mufasa's brother—and former heir to the throne—has plans of his own. The battle for Pride Rock is ravaged with betrayal, tragedy and drama, ultimately resulting in Simba's exile. With help from a curious pair of newfound friends, Simba will have to figure out how to grow up and take back what is rightfully his.",
         "release_date":"2019-07-12"
      },
      {
         "popularity":181.597,
         "vote_count":688,
         "video":false,
         "poster_path":"\/vqzNJRH4YyquRiWxCCOH0aXggHI.jpg",
         "id":290859,
         "adult":false,
         "backdrop_path":"\/riTANvQ8GKmQbgtC1ps3OfkU43A.jpg",
         "original_language":"en",
         "original_title":"Terminator: Dark Fate",
         "genre_ids":[
            28,
            878
         ],
         "title":"Terminator: Dark Fate",
         "vote_average":6.3,
         "overview":"Decades after Sarah Connor prevented Judgment Day, a lethal new Terminator is sent to eliminate the future leader of the resistance. In a fight to save mankind, battle-hardened Sarah Connor teams up with an unexpected ally and an enhanced super soldier to stop the deadliest Terminator yet.",
         "release_date":"2019-10-23"
      },
      {
         "popularity":143.377,
         "vote_count":9,
         "video":false,
         "poster_path":"\/4I0CQfnMy6sRR7QhgqsXR16TmIs.jpg",
         "id":645541,
         "adult":false,
         "backdrop_path":"\/sxPycUAaLJJGq2lhhgzR96ePaO0.jpg",
         "original_language":"en",
         "original_title":"Ellipse",
         "genre_ids":[
            878
         ],
         "title":"Ellipse",
         "vote_average":3.6,
         "overview":"A man and his dog are stranded on a volatile, oval-shaped planet and are forced to adapt and escape before time destroys them both.",
         "release_date":"2019-11-05"
      },
      {
         "popularity":88.91,
         "vote_count":82,
         "video":false,
         "poster_path":"\/3HbGrs1V1QS9kxjzPagMZaSxhKK.jpg",
         "id":476631,
         "adult":false,
         "backdrop_path":"\/5Sbv4UlC6M2Jsf3t1Bw88LUSwyU.jpg",
         "original_language":"en",
         "original_title":"Barbie: Dolphin Magic",
         "genre_ids":[
            12,
            16,
            14,
            10751
         ],
         "title":"Barbie: Dolphin Magic",
         "vote_average":6.5,
         "overview":"Barbie and her sisters take off on another exciting, global adventure to visit their friend Ken at his summer internship at a beautiful and exotic coral reef.",
         "release_date":"2017-10-13"
      },
      {
         "popularity":99.619,
         "vote_count":2156,
         "video":false,
         "poster_path":"\/zfE0R94v1E8cuKAerbskfD3VfUt.jpg",
         "id":474350,
         "adult":false,
         "backdrop_path":"\/8moTOzunF7p40oR5XhlDvJckOSW.jpg",
         "original_language":"en",
         "original_title":"It Chapter Two",
         "genre_ids":[
            18,
            27
         ],
         "title":"It Chapter Two",
         "vote_average":6.8,
         "overview":"27 years after overcoming the malevolent supernatural entity Pennywise, the former members of the Losers' Club, who have grown up and moved away from Derry, are brought back together by a devastating phone call.",
         "release_date":"2019-09-04"
      },
      {
         "popularity":113.803,
         "vote_count":675,
         "video":false,
         "poster_path":"\/fapXd3v9qTcNBTm39ZC4KUVQDNf.jpg",
         "id":423204,
         "adult":false,
         "backdrop_path":"\/k2WyDw2NTUIWnuEs5gT7wgrCQg6.jpg",
         "original_language":"en",
         "original_title":"Angel Has Fallen",
         "genre_ids":[
            28
         ],
         "title":"Angel Has Fallen",
         "vote_average":5.9,
         "overview":"After the events in the previous film, Secret Service agent Mike Banning finds himself framed for an assassination attempt on the President. Pursued by his own agency and the FBI, Banning races to clear his name and uncover the real terrorist threat which has set its sights on Air Force One.",
         "release_date":"2019-08-21"
      },
      {
         "popularity":113.301,
         "vote_count":384,
         "video":false,
         "poster_path":"\/vOl6shtL0wknjaIs6JdKCpcHvg8.jpg",
         "id":567609,
         "adult":false,
         "backdrop_path":"\/j8uPZSPjKYzHlN2B4NhPQVWWZ5x.jpg",
         "original_language":"en",
         "original_title":"Ready or Not",
         "genre_ids":[
            35,
            27,
            9648,
            53
         ],
         "title":"Ready or Not",
         "vote_average":6.8,
         "overview":"A bride's wedding night takes a sinister turn when her eccentric new in-laws force her to take part in a terrifying game.",
         "release_date":"2019-08-21"
      },
      {
         "popularity":89.669,
         "vote_count":689,
         "video":false,
         "poster_path":"\/uTALxjQU8e1lhmNjP9nnJ3t2pRU.jpg",
         "id":453405,
         "adult":false,
         "backdrop_path":"\/c3F4P2oauA7IQmy4hM0OmRt2W7d.jpg",
         "original_language":"en",
         "original_title":"Gemini Man",
         "genre_ids":[
            28,
            53
         ],
         "title":"Gemini Man",
         "vote_average":5.7,
         "overview":"Ageing assassin, Henry Brogen tries to get out of the business but finds himself in the ultimate battle—fighting his own clone who is 25 years younger than him, and at the peak of his abilities.",
         "release_date":"2019-10-02"
      },
      {
         "popularity":57.374,
         "vote_count":13574,
         "video":false,
         "poster_path":"\/y4MBh0EjBlMuOzv9axM4qJlmhzz.jpg",
         "id":283995,
         "adult":false,
         "backdrop_path":"\/aJn9XeesqsrSLKcHfHP4u5985hn.jpg",
         "original_language":"en",
         "original_title":"Guardians of the Galaxy Vol. 2",
         "genre_ids":[
            28,
            12,
            35,
            878
         ],
         "title":"Guardians of the Galaxy Vol. 2",
         "vote_average":7.7,
         "overview":"The Guardians must fight to keep their newfound family together as they unravel the mysteries of Peter Quill's true parentage.",
         "release_date":"2017-04-19"
      },
      {
         "popularity":83.669,
         "vote_count":370,
         "video":false,
         "poster_path":"\/6ApDtO7xaWAfPqfi2IARXIzj8QS.jpg",
         "id":359724,
         "adult":false,
         "backdrop_path":"\/n3UanIvmnBlH531pykuzNs4LbH6.jpg",
         "original_language":"en",
         "original_title":"Ford v Ferrari",
         "genre_ids":[
            28,
            18,
            36
         ],
         "title":"Ford v Ferrari",
         "vote_average":8.1,
         "overview":"American car designer Carroll Shelby and the British-born driver Ken Miles work together to battle corporate interference, the laws of physics, and their own personal demons to build a revolutionary race car for Ford Motor Company and take on the dominating race cars of Enzo Ferrari at the 24 Hours of Le Mans in France in 1966.",
         "release_date":"2019-11-13"
      },
      {
         "popularity":56.41,
         "vote_count":0,
         "video":false,
         "poster_path":"\/40Tje7U3S6LwNL2KRothPEmgw7H.jpg",
         "id":637963,
         "adult":false,
         "backdrop_path":"\/4xmEqmAYlaKfa9nW4OLT4C0HjCf.jpg",
         "original_language":"en",
         "original_title":"Never Surrender: A Galaxy Quest Documentary",
         "genre_ids":[
            99
         ],
         "title":"Never Surrender: A Galaxy Quest Documentary",
         "vote_average":0,
         "overview":"As Galaxy Quest celebrates its milestone 20th anniversary, Fandom has produced a brand new, feature-length documentary about the film and its legacy, appropriately titled Never Surrender: A Galaxy Quest Documentary.",
         "release_date":"2019-11-26"
      },
      {
         "popularity":101.864,
         "vote_count":94,
         "video":false,
         "poster_path":"\/4E2lyUGLEr3yH4q6kJxPkQUhX7n.jpg",
         "id":568012,
         "adult":false,
         "backdrop_path":"\/iGnCzXEx0cFlUbpyAMeHwHWhPhx.jpg",
         "original_language":"ja",
         "original_title":"ワンピーススタンピード",
         "genre_ids":[
            28,
            12,
            16
         ],
         "title":"One Piece: Stampede",
         "vote_average":7.3,
         "overview":"One Piece: Stampede is a stand-alone film that celebrates the anime's 20th Anniversary and takes place outside the canon of the \"One Piece\" TV series. Monkey D. Luffy and his Straw Hat pirate crew are invited to a massive Pirate Festival that brings many of the most iconic characters from throughout the franchise to participate in competition with the Straw Hats to find Roger's treasure. It also pits the Straw Hats against a new enemy named Bullet, a former member of Roger's crew.",
         "release_date":"2019-08-09"
      },
      {
         "popularity":71.104,
         "vote_count":2012,
         "video":false,
         "poster_path":"\/kvpNZAQow5es1tSY6XW2jAZuPPG.jpg",
         "id":384018,
         "adult":false,
         "backdrop_path":"\/qAhedRxRYWZAgZ8O8pHIl6QHdD7.jpg",
         "original_language":"en",
         "original_title":"Fast & Furious Presents: Hobbs & Shaw",
         "genre_ids":[
            28,
            12,
            35
         ],
         "title":"Fast & Furious Presents: Hobbs & Shaw",
         "vote_average":6.6,
         "overview":"Ever since US Diplomatic Security Service Agent Hobbs and lawless outcast Shaw first faced off, they just have swapped smacks and bad words. But when cyber-genetically enhanced anarchist Brixton's ruthless actions threaten the future of humanity, both join forces to defeat him. (A spin-off of “The Fate of the Furious,” focusing on Johnson's Luke Hobbs and Statham's Deckard Shaw.)",
         "release_date":"2019-08-01"
      },
      {
         "popularity":80.833,
         "vote_count":4198,
         "video":false,
         "poster_path":"\/3iYQTLGoy7QnjcUYRJy4YrAgGvp.jpg",
         "id":420817,
         "adult":false,
         "backdrop_path":"\/rVqY0Bo4Npf6EIONUROxjYAJfmD.jpg",
         "original_language":"en",
         "original_title":"Aladdin",
         "genre_ids":[
            12,
            35,
            14,
            10749,
            10751
         ],
         "title":"Aladdin",
         "vote_average":7.1,
         "overview":"A kindhearted street urchin named Aladdin embarks on a magical adventure after finding a lamp that releases a wisecracking genie while a power-hungry Grand Vizier vies for the same lamp that has the power to make their deepest wishes come true.",
         "release_date":"2019-05-22"
      }
   ]
}
